{
  "@context": "https://www.w3.org/ns/activitystreams",
  "id": "https://mastodev.aenor.ru/users/admin/outbox?min_id=0\u0026page=true",
  "type": "OrderedCollectionPage",
  "prev": "https://mastodev.aenor.ru/users/admin/outbox?min_id=102744806067538776\u0026page=true",
  "partOf": "https://mastodev.aenor.ru/users/admin/outbox",
  "orderedItems": [
    {
      "id": "https://mastodev.aenor.ru/users/admin/statuses/102744806067538776/activity",
      "type": "Create",
      "actor": "https://mastodev.aenor.ru/users/admin",
      "published": "2019-09-06T09:15:23Z",
      "to": [
        "https://www.w3.org/ns/activitystreams#Public"
      ],
      "cc": [
        "https://mastodev.aenor.ru/users/admin/followers"
      ],
      "object": {
        "id": "https://mastodev.aenor.ru/users/admin/statuses/102744806067538776",
        "type": "Note",
        "summary": null,
        "inReplyTo": "https://mastodev.aenor.ru/users/admin/statuses/102744689656864161",
        "published": "2019-09-06T09:15:23Z",
        "url": "https://mastodev.aenor.ru/@admin/102744806067538776",
        "attributedTo": "https://mastodev.aenor.ru/users/admin",
        "to": [
          "https://www.w3.org/ns/activitystreams#Public"
        ],
        "cc": [
          "https://mastodev.aenor.ru/users/admin/followers"
        ],
        "sensitive": false,
        "atomUri": "https://mastodev.aenor.ru/users/admin/statuses/102744806067538776",
        "inReplyToAtomUri": "https://mastodev.aenor.ru/users/admin/statuses/102744689656864161",
        "conversation": "tag:mastodev.aenor.ru,2019-09-06:objectId=1:objectType=Conversation",
        "content": "\u003cp\u003eOr, rather, don\u0026apos;t.\u003c/p\u003e",
        "contentMap": {
          "en": "\u003cp\u003eOr, rather, don\u0026apos;t.\u003c/p\u003e"
        },
        "attachment": [],
        "tag": [],
        "replies": {
          "id": "https://mastodev.aenor.ru/users/admin/statuses/102744806067538776/replies",
          "type": "Collection",
          "first": {
            "type": "CollectionPage",
            "partOf": "https://mastodev.aenor.ru/users/admin/statuses/102744806067538776/replies",
            "items": []
          }
        }
      }
    },
    {
      "id": "https://mastodev.aenor.ru/users/admin/statuses/102744689656864161/activity",
      "type": "Create",
      "actor": "https://mastodev.aenor.ru/users/admin",
      "published": "2019-09-06T08:45:46Z",
      "to": [
        "https://www.w3.org/ns/activitystreams#Public"
      ],
      "cc": [
        "https://mastodev.aenor.ru/users/admin/followers"
      ],
      "object": {
        "id": "https://mastodev.aenor.ru/users/admin/statuses/102744689656864161",
        "type": "Note",
        "summary": null,
        "inReplyTo": null,
        "published": "2019-09-06T08:45:46Z",
        "url": "https://mastodev.aenor.ru/@admin/102744689656864161",
        "attributedTo": "https://mastodev.aenor.ru/users/admin",
        "to": [
          "https://www.w3.org/ns/activitystreams#Public"
        ],
        "cc": [
          "https://mastodev.aenor.ru/users/admin/followers"
        ],
        "sensitive": false,
        "atomUri": "https://mastodev.aenor.ru/users/admin/statuses/102744689656864161",
        "inReplyToAtomUri": null,
        "conversation": "tag:mastodev.aenor.ru,2019-09-06:objectId=1:objectType=Conversation",
        "content": "\u003cp\u003eTest post, please ignore.\u003c/p\u003e",
        "contentMap": {
          "en": "\u003cp\u003eTest post, please ignore.\u003c/p\u003e"
        },
        "attachment": [],
        "tag": [],
        "replies": {
          "id": "https://mastodev.aenor.ru/users/admin/statuses/102744689656864161/replies",
          "type": "Collection",
          "first": {
            "type": "CollectionPage",
            "next": "https://mastodev.aenor.ru/users/admin/statuses/102744689656864161/replies?min_id=102744806067538776\u0026page=true",
            "partOf": "https://mastodev.aenor.ru/users/admin/statuses/102744689656864161/replies",
            "items": [
              "https://mastodev.aenor.ru/users/admin/statuses/102744806067538776"
            ]
          }
        }
      }
    }
  ]
}